Exploring NFL Play-by-Play Data
…
pbp_2017 %>% count(Passer) %>% arrange(desc(n))

## # A tibble: 97 x 2
##    Passer               n
##    <chr>            <int>
##  1 <NA>             26170
##  2 M.Stafford         611
##  3 P.Rivers           610
##  4 E.Manning          606
##  5 B.Roethlisberger   599
##  6 T.Brady            583
##  7 D.Brees            558
##  8 K.Cousins          557
##  9 B.Bortles          556
## 10 M.Ryan             552
## # ... with 87 more rows

pbp_2017 %>% count(Rusher)  %>% arrange(desc(n))

## # A tibble: 344 x 2
##    Rusher          n
##    <chr>       <int>
##  1 <NA>        31201
##  2 L.Bell        321
##  3 M.Gordon      285
##  4 T.Gurley      278
##  5 Jo.Howard     274
##  6 K.Hunt        272
##  7 L.Fournette   267
##  8 L.McCoy       255
##  9 F.Gore        247
## 10 C.Anderson    244
## # ... with 334 more rows

pbp_2017 %>% count(Receiver)  %>% arrange(desc(n))

## # A tibble: 473 x 2
##    Receiver         n
##    <chr>        <int>
##  1 <NA>         26943
##  2 D.Hopkins      182
##  3 A.Brown        172
##  4 K.Allen        170
##  5 L.Fitzgerald   170
##  6 A.Thielen      158
##  7 M.Thomas       158
##  8 J.Landry       155
##  9 J.Nelson       152
## 10 Ju.Jones       151
## # ... with 463 more rows

pbp_2017 %>% count(Returner) %>% arrange(desc(n))

## # A tibble: 201 x 2
##    Returner       n
##    <chr>      <int>
##  1 <NA>       41981
##  2 T.Lockett     83
##  3 A.Erickson    82
##  4 A.Roberts     72
##  5 T.Davis       70
##  6 M.Sherels     62
##  7 T.Cohen       61
##  8 P.Cooper      58
##  9 R.Switzer     53
## 10 J.Agnew       49
## # ... with 191 more rows
…
pbp_2017 %>% count(PuntResult)

## # A tibble: 3 x 2
##   PuntResult     n
##   <chr>      <int>
## 1 Blocked       11
## 2 Clean       2421
## 3 <NA>       41892

pbp_2017 %>% count(PenalizedPlayer,PenalizedTeam) %>% arrange(desc(n))

## # A tibble: 1,333 x 3
##    PenalizedPlayer PenalizedTeam     n
##    <chr>           <chr>         <int>
##  1 <NA>            <NA>          40981
##  2 G.Ifedi         SEA              15
##  3 G.Bolles        DEN              12
##  4 J.Clowney       HOU              12
##  5 P.Rivers        LAC              12
##  6 L.Tunsil        MIA              11
##  7 B.Skrine        NYJ              10
##  8 J.Gresham       ARI              10
##  9 S.Coleman       CLE              10
## 10 C.Leno          CHI               9
## # ... with 1,323 more rows

pbp_2017 %>% count(Tackler1) %>% arrange(desc(n))

## # A tibble: 1,261 x 2
##    Tackler1       n
##    <chr>      <int>
##  1 <NA>       18544
##  2 C.Jones      176
##  3 D.Jones      159
##  4 T.Davis      130
##  5 D.Johnson    125
##  6 J.Schobert   116
##  7 T.Smith      116
##  8 C.Kirksey    111
##  9 J.Jones      111
## 10 K.Fuller     110
## # ... with 1,251 more rows

pbp_2017 %>% count(Tackler2) %>% arrange(desc(n))

## # A tibble: 832 x 2
##    Tackler2        n
##    <chr>       <int>
##  1 <NA>        39080
##  2 B.Martinez     38
##  3 P.Brown        38
##  4 T.Davis        33
##  5 Z.Brown        32
##  6 C.Jones        31
##  7 D.Jones        30
##  8 E.Kendricks    29
##  9 J.Schobert     29
## 10 D.Davis        27
## # ... with 822 more rows

pbp_2017 %>% filter(!is.na(Tackler2)) %>%  count(Tackler1,Tackler2) %>% arrange(desc(n))

## # A tibble: 3,824 x 3
##    Tackler1   Tackler2        n
##    <chr>      <chr>       <int>
##  1 M.Brown    L.Guy           9
##  2 B.Marshall T.Davis         8
##  3 B.Wagner   E.Thomas        8
##  4 C.Kirksey  J.Schobert      7
##  5 D.Jones    R.Allen         7
##  6 J.Bostic   A.Morrison      7
##  7 J.Poyer    P.Brown         7
##  8 B.Martinez J.Ryan          6
##  9 D.Harrison D.Tomlinson     6
## 10 D.Jones    K.Neal          6
## # ... with 3,814 more rows
…
## # A tibble: 4 x 2
##   PassLocation     n
##   <chr>        <int>
## 1 <NA>         26230
## 2 right         7146
## 3 left          6773
## 4 middle        4175

Explore EPA

pbp_2017 %>% arrange(desc(EPA)) %>% 
  select(Date,Passer,Receiver,Rusher,desc, EPA)

## # A tibble: 44,324 x 6
##    Date       Passer           Receiver         Rusher   desc          EPA
##    <date>     <chr>            <chr>            <chr>    <chr>       <dbl>
##  1 2017-10-29 B.Roethlisberger J.Smith-Schuster <NA>     (3:15) (Sh~  9.51
##  2 2017-12-31 D.Carr           A.Cooper         <NA>     (11:51) (S~  8.93
##  3 2017-11-12 J.Goff           R.Woods          <NA>     (9:36) J.G~  8.59
##  4 2017-11-05 J.Brissett       T.Hilton         <NA>     (2:15) (Sh~  8.10
##  5 2017-09-10 M.Ryan           A.Hooper         <NA>     (12:10) (S~  7.98
##  6 2017-10-29 <NA>             <NA>             M.Gordon (6:30) (Sh~  7.93
##  7 2017-11-12 C.Beathard       M.Goodwin        <NA>     (8:10) C.B~  7.91
##  8 2017-10-08 C.Wentz          N.Agholor        <NA>     (6:29) (Sh~  7.89
##  9 2017-11-12 <NA>             <NA>             C.Grant  (:34) (Pun~  7.43
## 10 2017-10-08 <NA>             <NA>             J.Conner (2:00) J.W~  7.33
## # ... with 44,314 more rows

pbp_2017 %>% 
  group_by(Passer) %>% 
  summarise("total_epa" = sum(EPA)) %>% 
  arrange(desc(total_epa))

## # A tibble: 97 x 2
##    Passer           total_epa
##    <chr>                <dbl>
##  1 T.Brady               247.
##  2 A.Smith               163.
##  3 C.Wentz               161.
##  4 M.Ryan                158.
##  5 B.Roethlisberger      155.
##  6 M.Stafford            154.
##  7 C.Keenum              146.
##  8 J.Goff                138.
##  9 D.Brees               136.
## 10 J.Winston             123.
## # ... with 87 more rows

pbp_2017 %>% 
  filter(QBHit == 1) %>% 
  arrange(desc(EPA)) %>% 
  select(desc)

## # A tibble: 2,620 x 1
##    desc                                                                   
##    <chr>                                                                  
##  1 (12:10) (Shotgun) M.Ryan pass deep middle to A.Hooper for 88 yards, TO~
##  2 (11:43) (Shotgun) C.Wentz pass deep left to N.Agholor for 58 yards, TO~
##  3 (13:58) (No Huddle, Shotgun) E.Manning pass short middle to S.Shepard ~
##  4 (6:49) (Shotgun) J.Brissett pass short middle to T.Hilton for 40 yards~
##  5 (15:00) (Shotgun) C.Wentz pass deep right to N.Agholor pushed ob at SE~
##  6 (13:45) (Shotgun) D.Prescott pass deep middle to B.Butler ran ob at GB~
##  7 (7:17) (Shotgun) D.Carr pass deep middle to J.Cook for 29 yards, TOUCH~
##  8 (14:24) (No Huddle) M.Stafford pass deep right to M.Jones for 43 yards~
##  9 (3:25) (Shotgun) D.Kizer pass deep right to C.Coleman to CIN 33 for 44~
## 10 (1:02) (Shotgun) A.Smith pass deep middle to T.Kelce to KC 45 for 32 y~
## # ... with 2,610 more rows
…
